default = {
	name = ""
	
	name_list = "HUM1"
	ship_prefix = "ISS"
	
	species_name = ""
	species_plural = ""	#we should localize this!
	species_adjective = ""
	species_class = "HUM"
	portrait = "human"
	adjective = ""
	
	government = "gov_imperial"
		
	weapon = "tech_missiles_1"
	ftl = warp
	
	planet_name = ""
	system_name = ""
	planet_class = "pc_continental"
	graphical_culture = "mammalian_01"
	city_graphical_culture = "mammalian_01"
	
	empire_flag = {
		icon= {
			category = "pointy"
			file = "flag_pointy_2.dds"
		}
		background= {
			category = "backgrounds"
			file = "v.dds"
		}
		colors={
			"red"
			"black"
			"null"
			"null"
		}
	}
	
	ruler = {
		name = ""
		gender = female
		portrait = "human_female_04"
		#texture = -1
		#hair = 4
		#clothes = 5
	}
}